{
  "tasks": [
    {
      "id": 1,
      "title": "Fazer o TPC de DAW",
      "description": "Trabalho de Casa sobre Forms HTML",
      "begin_date": "2020-11-18",
      "due_date": "2020-11-25",
      "type": "Trabalho de Casa",
      "completed": {
        "status": "no",
        "date": "null"
      }
    },
    {
      "id": 2,
      "title": "Estudar",
      "begin_date": "2020-11-25",
      "due_date": "2020-11-30",
      "type": "Estudar",
      "description": "Estudar PSD",
      "completed": {
        "status": "yes",
        "date": "2020-11-24T23:21"
      }
    }
  ],
  "task_types": [
    {
      "id": 1,
      "description": "Trabalho de Casa"
    },
    {
      "id": 2,
      "description": "Extra-Curricular"
    },
    {
      "id": 3,
      "description": "Estudar"
    },
    {
      "id": 4,
      "description": "Arrumar a Casa"
    },
    {
      "id": 5,
      "description": "Reunião"
    }
  ]
}